{
  "title": "Returns all funding stats",
  "description": "",
  "permalink": "t~stats~get~stats",
  "uuid": "8EKpBPxm0NqknT_rZsFwC",
  "method": "GET",
  "path": "/stats",
  "pathTemplate": "/stats{?page,limit}",
  "parameters": [
    {
      "location": "query",
      "name": "page",
      "description": "Pagination page",
      "required": false,
      "schema": {
        "type": "integer"
      }
    },
    {
      "location": "query",
      "name": "limit",
      "description": "Items per page, set to 0, to return all items",
      "required": false,
      "schema": {
        "type": "integer"
      }
    }
  ],
  "meta": {
    "resource": {
      "title": "Stats",
      "permalink": "r~stats"
    }
  },
  "transactions": [
    {
      "request": {
        "title": "",
        "description": "",
        "method": "GET",
        "contentType": "application/json",
        "headers": [
          {
            "name": "Content-Type",
            "example": "application/json",
            "required": false,
            "schema": {
              "type": "string"
            }
          },
          {
            "name": "Accept",
            "example": "application/x.StarCitizenWikiApi.v1+json",
            "required": false,
            "schema": {
              "type": "string"
            }
          }
        ]
      },
      "response": {
        "title": "",
        "description": "",
        "statusCode": "200",
        "contentType": "application/json",
        "headers": [
          {
            "name": "Content-Type",
            "example": "application/json",
            "required": false,
            "schema": {
              "type": "string"
            }
          }
        ],
        "body": "{\n    \"data\": [\n        {\n            \"funds\": \"335901302.36\",\n            \"fans\": 2910921,\n            \"fleet\": 2910921,\n            \"timestamp\": \"2020-12-06T19:00:55.000000Z\"\n        },\n        {\n            \"funds\": \"335700500.89\",\n            \"fans\": 2909995,\n            \"fleet\": 2909995,\n            \"timestamp\": \"2020-12-05T19:00:46.000000Z\"\n        },\n        {\n            \"funds\": \"...\"\n        }\n    ],\n    \"meta\": {\n        \"processed_at\": \"2020-12-07 13:11:53\",\n        \"pagination\": {\n            \"total\": 2903,\n            \"count\": 10,\n            \"per_page\": 10,\n            \"current_page\": 1,\n            \"total_pages\": 291,\n            \"links\": {\n                \"next\": \"https:\\/\\/api.star-citizen.wiki\\/api\\/stats?page=2\"\n            }\n        }\n    }\n}\n"
      }
    }
  ]
}