{
  "title": "Returns all Comm-Links",
  "description": "",
  "permalink": "t~comm-links~get~comm-links",
  "uuid": "GX2P3vRshcVRLITKA-d2O",
  "method": "GET",
  "path": "/comm-links",
  "pathTemplate": "/comm-links{?page,limit,include}",
  "parameters": [
    {
      "location": "query",
      "name": "page",
      "description": "Pagination page",
      "required": false,
      "schema": {
        "type": "integer"
      }
    },
    {
      "location": "query",
      "name": "include",
      "description": "Relations to include. Valid relations are shown in the meta data",
      "required": false,
      "schema": {
        "type": "string"
      }
    },
    {
      "location": "query",
      "name": "limit",
      "description": "Items per page, set to 0, to return all items",
      "required": false,
      "schema": {
        "type": "integer"
      }
    }
  ],
  "meta": {
    "resource": {
      "title": "Comm-Links",
      "permalink": "r~comm-links"
    }
  },
  "transactions": [
    {
      "request": {
        "title": "",
        "description": "",
        "method": "GET",
        "contentType": "application/json",
        "headers": [
          {
            "name": "Content-Type",
            "example": "application/json",
            "required": false,
            "schema": {
              "type": "string"
            }
          },
          {
            "name": "Accept",
            "example": "application/x.StarCitizenWikiApi.v1+json",
            "required": false,
            "schema": {
              "type": "string"
            }
          }
        ]
      },
      "response": {
        "title": "",
        "description": "",
        "statusCode": "200",
        "contentType": "application/json",
        "headers": [
          {
            "name": "Content-Type",
            "example": "application/json",
            "required": false,
            "schema": {
              "type": "string"
            }
          }
        ],
        "body": "{\n    \"data\": [\n        {\n            \"id\": 17911,\n            \"title\": \"Star Citizen Live\",\n            \"rsi_url\": \"https:\\/\\/robertsspaceindustries.com\\/comm-link\\/transmission\\/17911-Star-Citizen-Live\",\n            \"api_url\": \"https:\\/\\/api.star-citizen.wiki\\/api\\/comm-links\\/17911\",\n            \"api_public_url\": \"https:\\/\\/api.star-citizen.wiki\\/comm-links\\/17911\",\n            \"channel\": \"Transmission\",\n            \"category\": \"General\",\n            \"series\": \"Star Citizen LIVE\",\n            \"images\": 1,\n            \"links\": 2,\n            \"comment_count\": 4,\n            \"created_at\": \"2020-12-03T23:00:00.000000Z\"\n        },\n        {\n            \"id\": 17909,\n            \"title\": \"Inside Star Citizen\",\n            \"rsi_url\": \"https:\\/\\/robertsspaceindustries.com\\/comm-link\\/transmission\\/17909-Inside-Star-Citizen\",\n            \"api_url\": \"https:\\/\\/api.star-citizen.wiki\\/api\\/comm-links\\/17909\",\n            \"api_public_url\": \"https:\\/\\/api.star-citizen.wiki\\/comm-links\\/17909\",\n            \"channel\": \"Transmission\",\n            \"category\": \"General\",\n            \"series\": \"Inside Star Citizen\",\n            \"images\": 1,\n            \"links\": 2,\n            \"comment_count\": 18,\n            \"created_at\": \"2020-12-02T23:00:00.000000Z\"\n        },\n        {\n            \"id\": \"...\"\n        }\n    ],\n    \"meta\": {\n        \"processed_at\": \"2020-12-07 14:45:18\",\n        \"valid_relations\": [\n            \"images\",\n            \"links\",\n            \"english\",\n            \"german\"\n        ],\n        \"pagination\": {\n            \"total\": 4229,\n            \"count\": 15,\n            \"per_page\": 15,\n            \"current_page\": 1,\n            \"total_pages\": 282,\n            \"links\": {\n                \"next\": \"https:\\/\\/api.star-citizen.wiki\\/api\\/comm-links?page=2\"\n            }\n        }\n    }\n}\n"
      }
    }
  ]
}