{
  "title": "Index of all available Star Systems",
  "description": "",
  "permalink": "t~starsystems~get~starmap~starsystems",
  "uuid": "MqhZCTG1vNofVozV8LqJM",
  "method": "GET",
  "path": "/starmap/starsystems",
  "pathTemplate": "/starmap/starsystems{?page,locale,include,limit}",
  "parameters": [
    {
      "location": "query",
      "name": "page",
      "description": "Pagination page",
      "required": false,
      "schema": {
        "type": "integer"
      }
    },
    {
      "location": "query",
      "name": "include",
      "description": "Relations to include. Valid relations are listed in the meta data",
      "required": false,
      "schema": {
        "type": "string"
      }
    },
    {
      "location": "query",
      "name": "locale",
      "description": "Localization to use. Supported codes: 'de_DE', 'en_EN'",
      "required": false,
      "schema": {
        "type": "string"
      }
    },
    {
      "location": "query",
      "name": "limit",
      "description": "Items per page, set to 0, to return all items",
      "required": false,
      "schema": {
        "type": "integer"
      }
    }
  ],
  "meta": {
    "resource": {
      "title": "Starsystems",
      "permalink": "r~starsystems"
    }
  },
  "transactions": [
    {
      "request": {
        "title": "",
        "description": "",
        "method": "GET",
        "contentType": "application/json",
        "headers": [
          {
            "name": "Content-Type",
            "example": "application/json",
            "required": false,
            "schema": {
              "type": "string"
            }
          },
          {
            "name": "Accept",
            "example": "application/x.StarCitizenWikiApi.v1+json",
            "required": false,
            "schema": {
              "type": "string"
            }
          }
        ]
      },
      "response": {
        "title": "",
        "description": "",
        "statusCode": "200",
        "contentType": "application/json",
        "headers": [
          {
            "name": "Content-Type",
            "example": "application/json",
            "required": false,
            "schema": {
              "type": "string"
            }
          }
        ],
        "body": "{\n    \"data\": [\n        {\n            \"id\": 398,\n            \"code\": \"AYR'KA\",\n            \"system_api_url\": \"https:\\/\\/api.star-citizen.wiki\\/api\\/starmap\\/starsystems\\/AYR'KA\",\n            \"name\": \"Ail'ka\",\n            \"status\": \"P\",\n            \"type\": \"SINGLE_STAR\",\n            \"position\": {\n                \"x\": 139.16,\n                \"y\": -7.99,\n                \"z\": 39.58\n            },\n            \"frost_line\": 179.1,\n            \"habitable_zone_inner\": 34.37,\n            \"habitable_zone_outer\": 174.7,\n            \"info_url\": null,\n            \"description\": {\n                \"de_DE\": \"...\",\n                \"en_EN\": \"...\"\n            },\n            \"aggregated\": {\n                \"size\": 198.97,\n                \"population\": 8.8,\n                \"economy\": 3.95,\n                \"danger\": 0\n            },\n            \"updated_at\": \"2020-10-15T13:19:19.000000Z\",\n            \"affiliation\": {\n                \"data\": [\n                    {\n                        \"id\": 4,\n                        \"name\": \"Xi'An\",\n                        \"code\": \"XIAN\",\n                        \"color\": \"#52c231\"\n                    }\n                ]\n            }\n        },\n        {\n            \"id\": \"...\"\n        }\n    ],\n    \"meta\": {\n        \"processed_at\": \"2020-12-08 20:37:11\",\n        \"valid_relations\": [\n            \"jumppoints\",\n            \"celestial_objects\"\n        ],\n        \"pagination\": {\n            \"total\": 90,\n            \"count\": 15,\n            \"per_page\": 15,\n            \"current_page\": 1,\n            \"total_pages\": 6,\n            \"links\": {\n                \"next\": \"https:\\/\\/api.star-citizen.wiki\\/api\\/starmap\\/starsystems?page=2\"\n            }\n        }\n    }\n}\n"
      }
    },
    {
      "request": {
        "title": "",
        "description": "",
        "method": "GET",
        "contentType": "application/json",
        "headers": [
          {
            "name": "Content-Type",
            "example": "application/json",
            "required": false,
            "schema": {
              "type": "string"
            }
          },
          {
            "name": "Accept",
            "example": "application/x.StarCitizenWikiApi.v1+json",
            "required": false,
            "schema": {
              "type": "string"
            }
          }
        ],
        "body": "{\n    \"include\": \"jumppoints\"\n}\n"
      },
      "response": {
        "title": "",
        "description": "",
        "statusCode": "200",
        "contentType": "application/json",
        "headers": [
          {
            "name": "Content-Type",
            "example": "application/json",
            "required": false,
            "schema": {
              "type": "string"
            }
          }
        ],
        "body": "{\n    \"data\": [\n        {\n            \"id\": 398,\n            \"code\": \"AYR'KA\",\n            \"system_api_url\": \"https:\\/\\/api.star-citizen.wiki\\/api\\/starmap\\/starsystems\\/AYR'KA\",\n            \"name\": \"Ail'ka\",\n            \"status\": \"P\",\n            \"type\": \"SINGLE_STAR\",\n            \"position\": {\n                \"x\": 139.16,\n                \"y\": -7.99,\n                \"z\": 39.58\n            },\n            \"frost_line\": 179.1,\n            \"habitable_zone_inner\": 34.37,\n            \"habitable_zone_outer\": 174.7,\n            \"info_url\": null,\n            \"description\": {\n                \"de_DE\": \"...\",\n                \"en_EN\": \"...\"\n            },\n            \"aggregated\": {\n                \"size\": 198.97,\n                \"population\": 8.8,\n                \"economy\": 3.95,\n                \"danger\": 0\n            },\n            \"updated_at\": \"2020-10-15T13:19:19.000000Z\",\n            \"affiliation\": {\n                \"data\": [\n                    {\n                        \"id\": 4,\n                        \"name\": \"Xi'An\",\n                        \"code\": \"XIAN\",\n                        \"color\": \"#52c231\"\n                    }\n                ]\n            },\n            \"jumppoints\": {\n                \"data\": [\n                    {\n                        \"id\": 1341,\n                        \"size\": \"L\",\n                        \"direction\": \"B\",\n                        \"entry\": {\n                            \"id\": 2175,\n                            \"system_id\": 377,\n                            \"system_api_url\": \"https:\\/\\/api.star-citizen.wiki\\/api\\/starmap\\/starsystems\\/377\",\n                            \"celestial_object_api_url\": \"https:\\/\\/api.star-citizen.wiki\\/api\\/starmap\\/celestial-objects\\/HADUR.JUMPPOINTS.AYR'KA\",\n                            \"status\": \"P\",\n                            \"code\": \"HADUR.JUMPPOINTS.AYR'KA\",\n                            \"designation\": \"Yā’mon (Hadur) - Ail'ka\"\n                        },\n                        \"exit\": {\n                            \"id\": 2270,\n                            \"system_id\": 398,\n                            \"system_api_url\": \"https:\\/\\/api.star-citizen.wiki\\/api\\/starmap\\/starsystems\\/398\",\n                            \"celestial_object_api_url\": \"https:\\/\\/api.star-citizen.wiki\\/api\\/starmap\\/celestial-objects\\/AYR'KA.JUMPPOINTS.HADUR\",\n                            \"status\": \"P\",\n                            \"code\": \"AYR'KA.JUMPPOINTS.HADUR\",\n                            \"designation\": \"Ail'ka - Yā’mon (Hadur)\"\n                        }\n                    },\n                    {\n                        \"id\": 1378,\n                        \"size\": \"L\",\n                        \"direction\": \"B\",\n                        \"entry\": {\n                            \"id\": 2269,\n                            \"system_id\": 398,\n                            \"system_api_url\": \"https:\\/\\/api.star-citizen.wiki\\/api\\/starmap\\/starsystems\\/398\",\n                            \"celestial_object_api_url\": \"https:\\/\\/api.star-citizen.wiki\\/api\\/starmap\\/celestial-objects\\/AYR'KA.JUMPPOINTS.INDRA\",\n                            \"status\": \"P\",\n                            \"code\": \"AYR'KA.JUMPPOINTS.INDRA\",\n                            \"designation\": \"Ail'ka - Kyuk’ya (Indra)\"\n                        },\n                        \"exit\": {\n                            \"id\": 2274,\n                            \"system_id\": 399,\n                            \"system_api_url\": \"https:\\/\\/api.star-citizen.wiki\\/api\\/starmap\\/starsystems\\/399\",\n                            \"celestial_object_api_url\": \"https:\\/\\/api.star-citizen.wiki\\/api\\/starmap\\/celestial-objects\\/INDRA.JUMPPOINTS.AYR'KA\",\n                            \"status\": \"P\",\n                            \"code\": \"INDRA.JUMPPOINTS.AYR'KA\",\n                            \"designation\": \"Kyuk’ya (Indra) - Ail'ka\"\n                        }\n                    }\n                ]\n            }\n        },\n        {\n            \"id\": \"...\"\n        }\n    ],\n    \"meta\": {\n        \"processed_at\": \"2020-12-08 20:37:11\",\n        \"valid_relations\": [\n            \"jumppoints\",\n            \"celestial_objects\"\n        ],\n        \"pagination\": {\n            \"total\": 90,\n            \"count\": 15,\n            \"per_page\": 15,\n            \"current_page\": 1,\n            \"total_pages\": 6,\n            \"links\": {\n                \"next\": \"https:\\/\\/api.star-citizen.wiki\\/api\\/starmap\\/starsystems?page=2\"\n            }\n        }\n    }\n}\n"
      }
    }
  ]
}