{
  "title": "Index of all ground vehicles",
  "description": "",
  "permalink": "t~vehicles~get~vehicles",
  "uuid": "vs5AGuLvfE1Krt5DILH13",
  "method": "GET",
  "path": "/vehicles",
  "pathTemplate": "/vehicles{?page,locale,include,limit}",
  "parameters": [
    {
      "location": "query",
      "name": "page",
      "description": "Pagination page",
      "required": false,
      "schema": {
        "type": "integer"
      }
    },
    {
      "location": "query",
      "name": "limit",
      "description": "Items per page, set to 0, to return all items",
      "required": false,
      "schema": {
        "type": "integer"
      }
    },
    {
      "location": "query",
      "name": "NAME",
      "description": "URL encoded Name or Slug",
      "required": true,
      "schema": {
        "type": "string"
      }
    },
    {
      "location": "query",
      "name": "include",
      "description": "Relations to include. Valid relations are listed in the meta data",
      "required": false,
      "schema": {
        "type": "string"
      }
    },
    {
      "location": "query",
      "name": "locale",
      "description": "Localization to use. Supported codes: 'de_DE', 'en_EN'",
      "required": false,
      "schema": {
        "type": "string"
      }
    }
  ],
  "meta": {
    "resource": {
      "title": "Vehicles",
      "permalink": "r~vehicles"
    }
  },
  "transactions": [
    {
      "request": {
        "title": "",
        "description": "",
        "method": "GET",
        "contentType": "application/json",
        "headers": [
          {
            "name": "Content-Type",
            "example": "application/json",
            "required": false,
            "schema": {
              "type": "string"
            }
          },
          {
            "name": "Accept",
            "example": "application/x.StarCitizenWikiApi.v1+json",
            "required": false,
            "schema": {
              "type": "string"
            }
          }
        ]
      },
      "response": {
        "title": "",
        "description": "",
        "statusCode": "200",
        "contentType": "application/json",
        "headers": [
          {
            "name": "Content-Type",
            "example": "application/json",
            "required": false,
            "schema": {
              "type": "string"
            }
          }
        ],
        "body": "{\n    \"data\": [\n        {\n            \"id\": 183,\n            \"chassis_id\": 75,\n            \"name\": \"Anvil Ballista \",\n            \"slug\": \"anvil-ballista\",\n            \"sizes\": {\n                \"length\": 17,\n                \"beam\": 7,\n                \"height\": 5.5\n            },\n            \"mass\": 0,\n            \"cargo_capacity\": 0,\n            \"crew\": {\n                \"min\": 1,\n                \"max\": 2\n            },\n            \"speed\": {\n                \"scm\": 33\n            },\n            \"foci\": [\n                {\n                    \"de_DE\": \"Militär\",\n                    \"en_EN\": \"Military\"\n                }\n            ],\n            \"production_status\": {\n                \"de_DE\": \"Flugbereit\",\n                \"en_EN\": \"flight-ready\"\n            },\n            \"production_note\": {\n                \"de_DE\": \"Keine\",\n                \"en_EN\": \"None\"\n            },\n            \"type\": {\n                \"de_DE\": \"Gefecht\",\n                \"en_EN\": \"combat\"\n            },\n            \"description\": [],\n            \"size\": {\n                \"de_DE\": \"Fahrzeug\",\n                \"en_EN\": \"vehicle\"\n            },\n            \"manufacturer\": {\n                \"code\": \"ANVL\",\n                \"name\": \"Anvil Aerospace\"\n            },\n            \"updated_at\": \"2020-11-20T00:49:52.000000Z\",\n            \"missing_translations\": [\n                \"de_DE\",\n                \"anvil-ballista\"\n            ]\n        },\n        {\n            \"id\": \"...\"\n        }\n    ],\n    \"meta\": {\n        \"processed_at\": \"2020-12-08 20:32:51\",\n        \"valid_relations\": [\n            \"components\"\n        ],\n        \"pagination\": {\n            \"total\": 17,\n            \"count\": 5,\n            \"per_page\": 5,\n            \"current_page\": 1,\n            \"total_pages\": 4,\n            \"links\": {\n                \"next\": \"https:\\/\\/api.star-citizen.wiki\\/api\\/vehicles?page=2\"\n            }\n        }\n    }\n}\nOutput of a single vehicle by vehicle name or slug (e.g. Cyclone) [GET /vehicles/{NAME}{?locale,include}]\n\n\n"
      }
    },
    {
      "request": {
        "title": "",
        "description": "",
        "method": "GET",
        "contentType": "application/json",
        "headers": [
          {
            "name": "Content-Type",
            "example": "application/json",
            "required": false,
            "schema": {
              "type": "string"
            }
          },
          {
            "name": "Accept",
            "example": "application/x.StarCitizenWikiApi.v1+json",
            "required": false,
            "schema": {
              "type": "string"
            }
          }
        ],
        "body": "{\n    \"NAME\": \"Cyclone\"\n}\n"
      },
      "response": {
        "title": "",
        "description": "",
        "statusCode": "200",
        "contentType": "application/json",
        "headers": [
          {
            "name": "Content-Type",
            "example": "application/json",
            "required": false,
            "schema": {
              "type": "string"
            }
          }
        ],
        "body": "{\n    \"data\": {\n        \"id\": 134,\n        \"chassis_id\": 53,\n        \"name\": \"Cyclone\",\n        \"slug\": \"cyclone\",\n        \"sizes\": {\n            \"length\": 6,\n            \"beam\": 4,\n            \"height\": 2.5\n        },\n        \"mass\": 3022,\n        \"cargo_capacity\": 1,\n        \"crew\": {\n            \"min\": 1,\n            \"max\": 2\n        },\n        \"speed\": {\n            \"scm\": 0\n        },\n        \"foci\": [\n            {\n                \"de_DE\": \"Erkundung\",\n                \"en_EN\": \"Exploration\"\n            },\n            {\n                \"de_DE\": \"Aufklärung\",\n                \"en_EN\": \"Recon\"\n            }\n        ],\n        \"production_status\": {\n            \"de_DE\": \"Flugbereit\",\n            \"en_EN\": \"flight-ready\"\n        },\n        \"production_note\": {\n            \"de_DE\": \"Keine\",\n            \"en_EN\": \"None\"\n        },\n        \"type\": {\n            \"de_DE\": \"Gelände\",\n            \"en_EN\": \"ground\"\n        },\n        \"description\": {\n            \"de_DE\": \"...\",\n            \"en_EN\": \"...\"\n        },\n        \"size\": {\n            \"de_DE\": \"Fahrzeug\",\n            \"en_EN\": \"vehicle\"\n        },\n        \"manufacturer\": {\n            \"code\": \"TMBL\",\n            \"name\": \"Tumbril\"\n        },\n        \"updated_at\": \"2019-11-10T17:40:17.000000Z\",\n        \"missing_translations\": []\n    },\n    \"meta\": {\n        \"processed_at\": \"2020-12-08 20:31:53\",\n        \"valid_relations\": [\n            \"components\"\n        ]\n    }\n}\n"
      }
    },
    {
      "request": {
        "title": "",
        "description": "",
        "method": "GET",
        "contentType": "application/json",
        "headers": [
          {
            "name": "Content-Type",
            "example": "application/json",
            "required": false,
            "schema": {
              "type": "string"
            }
          },
          {
            "name": "Accept",
            "example": "application/x.StarCitizenWikiApi.v1+json",
            "required": false,
            "schema": {
              "type": "string"
            }
          }
        ],
        "body": "{\n    \"NAME\": \"Cyclone\",\n    \"locale\": \"de_DE\"\n}\n"
      },
      "response": {
        "title": "",
        "description": "",
        "statusCode": "200",
        "contentType": "application/json",
        "headers": [
          {
            "name": "Content-Type",
            "example": "application/json",
            "required": false,
            "schema": {
              "type": "string"
            }
          }
        ],
        "body": "{\n    \"data\": {\n        \"id\": 134,\n        \"chassis_id\": 53,\n        \"name\": \"Cyclone\",\n        \"slug\": \"cyclone\",\n        \"sizes\": {\n            \"length\": 6,\n            \"beam\": 4,\n            \"height\": 2.5\n        },\n        \"mass\": 3022,\n        \"cargo_capacity\": 1,\n        \"crew\": {\n            \"min\": 1,\n            \"max\": 2\n        },\n        \"speed\": {\n            \"scm\": 0\n        },\n        \"foci\": [\n            \"Erkundung\",\n            \"Aufklärung\"\n        ],\n        \"production_status\": \"Flugbereit\",\n        \"production_note\": \"Keine\",\n        \"type\": \"Gelände\",\n        \"description\": \"...\",\n        \"size\": \"Fahrzeug\",\n        \"manufacturer\": {\n            \"code\": \"TMBL\",\n            \"name\": \"Tumbril\"\n        },\n        \"updated_at\": \"2019-11-10T17:40:17.000000Z\",\n        \"missing_translations\": []\n    },\n    \"meta\": {\n        \"processed_at\": \"2020-12-08 20:29:47\",\n        \"valid_relations\": [\n            \"components\"\n        ]\n    }\n}\n"
      }
    },
    {
      "request": {
        "title": "",
        "description": "",
        "method": "GET",
        "contentType": "application/json",
        "headers": [
          {
            "name": "Content-Type",
            "example": "application/json",
            "required": false,
            "schema": {
              "type": "string"
            }
          },
          {
            "name": "Accept",
            "example": "application/x.StarCitizenWikiApi.v1+json",
            "required": false,
            "schema": {
              "type": "string"
            }
          }
        ],
        "body": "{\n    \"NAME\": \"Cyclone\",\n    \"locale\": \"de_DE\",\n    \"include\": \"components\"\n}\n"
      },
      "response": {
        "title": "",
        "description": "",
        "statusCode": "200",
        "contentType": "application/json",
        "headers": [
          {
            "name": "Content-Type",
            "example": "application/json",
            "required": false,
            "schema": {
              "type": "string"
            }
          }
        ],
        "body": "{\n    \"data\": {\n        \"id\": 134,\n        \"chassis_id\": 53,\n        \"name\": \"Cyclone\",\n        \"slug\": \"cyclone\",\n        \"sizes\": {\n            \"length\": 6,\n            \"beam\": 4,\n            \"height\": 2.5\n        },\n        \"mass\": 3022,\n        \"cargo_capacity\": 1,\n        \"crew\": {\n            \"min\": 1,\n            \"max\": 2\n        },\n        \"speed\": {\n            \"scm\": 0\n        },\n        \"foci\": [\n            \"Erkundung\",\n            \"Aufklärung\"\n        ],\n        \"production_status\": \"Flugbereit\",\n        \"production_note\": \"Keine\",\n        \"type\": \"Gelände\",\n        \"description\": \"...\",\n        \"size\": \"Fahrzeug\",\n        \"manufacturer\": {\n            \"code\": \"TMBL\",\n            \"name\": \"Tumbril\"\n        },\n        \"updated_at\": \"2019-11-10T17:40:17.000000Z\",\n        \"missing_translations\": [],\n        \"components\": {\n            \"data\": [\n                {\n                    \"type\": \"radar\",\n                    \"name\": \"Radar\",\n                    \"mounts\": 1,\n                    \"component_size\": \"S\",\n                    \"category\": \"\",\n                    \"size\": \"S\",\n                    \"details\": \"\",\n                    \"quantity\": 1,\n                    \"manufacturer\": \"TBD\",\n                    \"component_class\": \"RSIAvionic\"\n                },\n                {\n                    \"type\": \"...\"\n                }\n            ]\n        }\n    },\n    \"meta\": {\n        \"processed_at\": \"2020-12-08 20:29:47\",\n        \"valid_relations\": [\n            \"components\"\n        ]\n    }\n}\n"
      }
    },
    {
      "request": {
        "title": "",
        "description": "",
        "method": "GET",
        "contentType": "application/json",
        "headers": [
          {
            "name": "Content-Type",
            "example": "application/json",
            "required": false,
            "schema": {
              "type": "string"
            }
          },
          {
            "name": "Accept",
            "example": "application/x.StarCitizenWikiApi.v1+json",
            "required": false,
            "schema": {
              "type": "string"
            }
          }
        ],
        "body": "{\n    \"NAME\": \"invalid\"\n}\n"
      },
      "response": {
        "title": "",
        "description": "",
        "statusCode": "404",
        "contentType": "application/json",
        "headers": [
          {
            "name": "Content-Type",
            "example": "application/json",
            "required": false,
            "schema": {
              "type": "string"
            }
          }
        ],
        "body": "{\n    \"message\": \"No Results for Query 'invalid'\",\n    \"status_code\": 404\n}\n"
      }
    }
  ]
}