{
  "title": "Returns all manufacturers",
  "description": "",
  "permalink": "t~manufacturers~get~manufacturers",
  "uuid": "xMDQ4Yl0t52_IYHei1JWY",
  "method": "GET",
  "path": "/manufacturers",
  "pathTemplate": "/manufacturers{?page,limit,include,locale}",
  "parameters": [
    {
      "location": "query",
      "name": "page",
      "description": "Pagination page",
      "required": false,
      "schema": {
        "type": "integer"
      }
    },
    {
      "location": "query",
      "name": "include",
      "description": "Relations to include. Valid relations are listed in the meta data",
      "required": false,
      "schema": {
        "type": "string"
      }
    },
    {
      "location": "query",
      "name": "limit",
      "description": "Items per page, set to 0, to return all items",
      "required": false,
      "schema": {
        "type": "integer"
      }
    },
    {
      "location": "query",
      "name": "locale",
      "description": "Localization to use. Supported codes: 'de_DE', 'en_EN'",
      "required": false,
      "schema": {
        "type": "string"
      }
    }
  ],
  "meta": {
    "resource": {
      "title": "Manufacturers",
      "permalink": "r~manufacturers"
    }
  },
  "transactions": [
    {
      "request": {
        "title": "",
        "description": "",
        "method": "GET",
        "contentType": "application/json",
        "headers": [
          {
            "name": "Content-Type",
            "example": "application/json",
            "required": false,
            "schema": {
              "type": "string"
            }
          },
          {
            "name": "Accept",
            "example": "application/x.StarCitizenWikiApi.v1+json",
            "required": false,
            "schema": {
              "type": "string"
            }
          }
        ]
      },
      "response": {
        "title": "",
        "description": "",
        "statusCode": "200",
        "contentType": "application/json",
        "headers": [
          {
            "name": "Content-Type",
            "example": "application/json",
            "required": false,
            "schema": {
              "type": "string"
            }
          }
        ],
        "body": "{\n    \"data\": [\n        {\n            \"code\": \"RSI\",\n            \"name\": \"Roberts Space Industries\",\n            \"known_for\": {\n                \"de_DE\": \"Die Aurora und die Constellation\",\n                \"en_EN\": \"the Aurora and the Constellation\"\n            },\n            \"description\": {\n                \"de_DE\": \"...\",\n                \"en_EN\": \"...\"\n            }\n        },\n        {\n            \"code\": \"ORIG\",\n            \"name\": \"Origin Jumpworks GmbH\",\n            \"known_for\": {\n                \"de_DE\": \"Die 300i Serie\",\n                \"en_EN\": \"the 300i series\"\n            },\n            \"description\": {\n                \"de_DE\": \"...\",\n                \"en_EN\": \"...\"\n            }\n        }\n    ],\n    \"meta\": {\n        \"processed_at\": \"2020-12-07 13:25:54\",\n        \"valid_relations\": [\n            \"ships\",\n            \"vehicles\"\n        ],\n        \"pagination\": {\n            \"total\": 17,\n            \"count\": 10,\n            \"per_page\": 10,\n            \"current_page\": 1,\n            \"total_pages\": 2,\n            \"links\": {\n                \"next\": \"https:\\/\\/api.star-citizen.wiki\\/api\\/manufacturers?page=2\"\n            }\n        }\n    }\n}\n"
      }
    }
  ]
}