{
  "title": "Index of all ships",
  "description": "",
  "permalink": "t~ships~get~ships",
  "uuid": "XvLxAk2Bro8zbsg4szSrW",
  "method": "GET",
  "path": "/ships",
  "pathTemplate": "/ships{?page,locale,include,limit}",
  "parameters": [
    {
      "location": "query",
      "name": "page",
      "description": "Pagination page",
      "required": false,
      "schema": {
        "type": "integer"
      }
    },
    {
      "location": "query",
      "name": "limit",
      "description": "Items per page, set to 0, to return all items",
      "required": false,
      "schema": {
        "type": "integer"
      }
    },
    {
      "location": "query",
      "name": "NAME",
      "description": "URL encoded Name or Slug",
      "required": true,
      "schema": {
        "type": "string"
      }
    },
    {
      "location": "query",
      "name": "include",
      "description": "Relations to include. Valid relations are listed in the meta data",
      "required": false,
      "schema": {
        "type": "string"
      }
    },
    {
      "location": "query",
      "name": "locale",
      "description": "Localization to use. Supported codes: 'de_DE', 'en_EN'",
      "required": false,
      "schema": {
        "type": "string"
      }
    }
  ],
  "meta": {
    "resource": {
      "title": "Ships",
      "permalink": "r~ships"
    }
  },
  "transactions": [
    {
      "request": {
        "title": "",
        "description": "",
        "method": "GET",
        "contentType": "application/json",
        "headers": [
          {
            "name": "Content-Type",
            "example": "application/json",
            "required": false,
            "schema": {
              "type": "string"
            }
          },
          {
            "name": "Accept",
            "example": "application/x.StarCitizenWikiApi.v1+json",
            "required": false,
            "schema": {
              "type": "string"
            }
          }
        ]
      },
      "response": {
        "title": "",
        "description": "",
        "statusCode": "200",
        "contentType": "application/json",
        "headers": [
          {
            "name": "Content-Type",
            "example": "application/json",
            "required": false,
            "schema": {
              "type": "string"
            }
          }
        ],
        "body": "{\n    \"data\": [\n        {\n            \"id\": 159,\n            \"chassis_id\": 63,\n            \"name\": \"100i\",\n            \"slug\": \"100i\",\n            \"sizes\": {\n                \"length\": 19.3,\n                \"beam\": 11,\n                \"height\": 4\n            },\n            \"mass\": 0,\n            \"cargo_capacity\": 2,\n            \"crew\": {\n                \"min\": 1,\n                \"max\": 1\n            },\n            \"speed\": {\n                \"scm\": 210,\n                \"afterburner\": 0\n            },\n            \"agility\": {\n                \"pitch\": 0,\n                \"yaw\": 0,\n                \"roll\": 0,\n                \"acceleration\": {\n                    \"x_axis\": 0,\n                    \"y_axis\": 0,\n                    \"z_axis\": 0\n                }\n            },\n            \"foci\": [\n                {\n                    \"de_DE\": \"Einsteiger\",\n                    \"en_EN\": \"Starter\"\n                },\n                {\n                    \"de_DE\": \"Reisen\",\n                    \"en_EN\": \"Touring\"\n                }\n            ],\n            \"production_status\": {\n                \"de_DE\": \"Flugbereit\",\n                \"en_EN\": \"flight-ready\"\n            },\n            \"production_note\": {\n                \"de_DE\": \"Keine\",\n                \"en_EN\": \"None\"\n            },\n            \"type\": {\n                \"de_DE\": \"Mehrzweck\",\n                \"en_EN\": \"multi\"\n            },\n            \"description\": {\n                \"de_DE\": \"....\",\n                \"en_EN\": \"...\"\n            },\n            \"size\": {\n                \"de_DE\": \"Klein\",\n                \"en_EN\": \"small\"\n            },\n            \"manufacturer\": {\n                \"code\": \"ORIG\",\n                \"name\": \"Origin Jumpworks GmbH\"\n            },\n            \"updated_at\": \"2020-10-15T13:19:19.000000Z\",\n            \"missing_translations\": []\n        },\n        {\n            \"id\": \"...\"\n        }\n    ],\n    \"meta\": {\n        \"processed_at\": \"2020-12-08 20:27:04\",\n        \"valid_relations\": [\n            \"components\"\n        ],\n        \"pagination\": {\n            \"total\": 154,\n            \"count\": 5,\n            \"per_page\": 5,\n            \"current_page\": 1,\n            \"total_pages\": 31,\n            \"links\": {\n                \"next\": \"https:\\/\\/api.star-citizen.wiki\\/api\\/ships?page=2\"\n            }\n        }\n    }\n}\nOutput of a single ship by name or slug (e.g. 3001) [GET /ships/{NAME}{?locale,include}]\n\n\n"
      }
    },
    {
      "request": {
        "title": "",
        "description": "",
        "method": "GET",
        "contentType": "application/json",
        "headers": [
          {
            "name": "Content-Type",
            "example": "application/json",
            "required": false,
            "schema": {
              "type": "string"
            }
          },
          {
            "name": "Accept",
            "example": "application/x.StarCitizenWikiApi.v1+json",
            "required": false,
            "schema": {
              "type": "string"
            }
          }
        ],
        "body": "{\n    \"NAME\": \"100i\"\n}\n"
      },
      "response": {
        "title": "",
        "description": "",
        "statusCode": "200",
        "contentType": "application/json",
        "headers": [
          {
            "name": "Content-Type",
            "example": "application/json",
            "required": false,
            "schema": {
              "type": "string"
            }
          }
        ],
        "body": "{\n    \"data\": {\n        \"id\": 159,\n        \"chassis_id\": 63,\n        \"name\": \"100i\",\n        \"slug\": \"100i\",\n        \"sizes\": {\n            \"length\": 19.3,\n            \"beam\": 11,\n            \"height\": 4\n        },\n        \"mass\": 0,\n        \"cargo_capacity\": 2,\n        \"crew\": {\n            \"min\": 1,\n            \"max\": 1\n        },\n        \"speed\": {\n            \"scm\": 210,\n            \"afterburner\": 0\n        },\n        \"agility\": {\n            \"pitch\": 0,\n            \"yaw\": 0,\n            \"roll\": 0,\n            \"acceleration\": {\n                \"x_axis\": 0,\n                \"y_axis\": 0,\n                \"z_axis\": 0\n            }\n        },\n        \"foci\": [\n            {\n                \"de_DE\": \"Einsteiger\",\n                \"en_EN\": \"Starter\"\n            },\n            {\n                \"de_DE\": \"Reisen\",\n                \"en_EN\": \"Touring\"\n            }\n        ],\n        \"production_status\": {\n            \"de_DE\": \"Flugbereit\",\n            \"en_EN\": \"flight-ready\"\n        },\n        \"production_note\": {\n            \"de_DE\": \"Keine\",\n            \"en_EN\": \"None\"\n        },\n        \"type\": {\n            \"de_DE\": \"Mehrzweck\",\n            \"en_EN\": \"multi\"\n        },\n        \"description\": {\n            \"de_DE\": \"...\",\n            \"en_EN\": \"...\"\n        },\n        \"size\": {\n            \"de_DE\": \"Klein\",\n            \"en_EN\": \"small\"\n        },\n        \"manufacturer\": {\n            \"code\": \"ORIG\",\n            \"name\": \"Origin Jumpworks GmbH\"\n        },\n        \"updated_at\": \"2020-10-15T13:19:19.000000Z\",\n        \"missing_translations\": []\n    },\n    \"meta\": {\n        \"processed_at\": \"2020-12-08 20:29:47\",\n        \"valid_relations\": [\n            \"components\"\n        ]\n    }\n}\n"
      }
    },
    {
      "request": {
        "title": "",
        "description": "",
        "method": "GET",
        "contentType": "application/json",
        "headers": [
          {
            "name": "Content-Type",
            "example": "application/json",
            "required": false,
            "schema": {
              "type": "string"
            }
          },
          {
            "name": "Accept",
            "example": "application/x.StarCitizenWikiApi.v1+json",
            "required": false,
            "schema": {
              "type": "string"
            }
          }
        ],
        "body": "{\n    \"NAME\": \"100i\",\n    \"locale\": \"de_DE\"\n}\n"
      },
      "response": {
        "title": "",
        "description": "",
        "statusCode": "200",
        "contentType": "application/json",
        "headers": [
          {
            "name": "Content-Type",
            "example": "application/json",
            "required": false,
            "schema": {
              "type": "string"
            }
          }
        ],
        "body": "{\n    \"data\": {\n        \"id\": 159,\n        \"chassis_id\": 63,\n        \"name\": \"100i\",\n        \"slug\": \"100i\",\n        \"sizes\": {\n            \"length\": 19.3,\n            \"beam\": 11,\n            \"height\": 4\n        },\n        \"mass\": 0,\n        \"cargo_capacity\": 2,\n        \"crew\": {\n            \"min\": 1,\n            \"max\": 1\n        },\n        \"speed\": {\n            \"scm\": 210,\n            \"afterburner\": 0\n        },\n        \"agility\": {\n            \"pitch\": 0,\n            \"yaw\": 0,\n            \"roll\": 0,\n            \"acceleration\": {\n                \"x_axis\": 0,\n                \"y_axis\": 0,\n                \"z_axis\": 0\n            }\n        },\n        \"foci\": [\n            \"Einsteiger\",\n            \"Reisen\"\n        ],\n        \"production_status\": \"Flugbereit\",\n        \"production_note\": \"Keine\",\n        \"type\": \"Mehrzweck\",\n        \"description\": \"...\",\n        \"size\": \"Klein\",\n        \"manufacturer\": {\n            \"code\": \"ORIG\",\n            \"name\": \"Origin Jumpworks GmbH\"\n        },\n        \"updated_at\": \"2020-10-15T13:19:19.000000Z\",\n        \"missing_translations\": []\n    },\n    \"meta\": {\n        \"processed_at\": \"2020-12-08 20:29:47\",\n        \"valid_relations\": [\n            \"components\"\n        ]\n    }\n}\n"
      }
    },
    {
      "request": {
        "title": "",
        "description": "",
        "method": "GET",
        "contentType": "application/json",
        "headers": [
          {
            "name": "Content-Type",
            "example": "application/json",
            "required": false,
            "schema": {
              "type": "string"
            }
          },
          {
            "name": "Accept",
            "example": "application/x.StarCitizenWikiApi.v1+json",
            "required": false,
            "schema": {
              "type": "string"
            }
          }
        ],
        "body": "{\n    \"NAME\": \"100i\",\n    \"locale\": \"de_DE\",\n    \"include\": \"components\"\n}\n"
      },
      "response": {
        "title": "",
        "description": "",
        "statusCode": "200",
        "contentType": "application/json",
        "headers": [
          {
            "name": "Content-Type",
            "example": "application/json",
            "required": false,
            "schema": {
              "type": "string"
            }
          }
        ],
        "body": "{\n    \"data\": {\n        \"id\": 159,\n        \"chassis_id\": 63,\n        \"name\": \"100i\",\n        \"slug\": \"100i\",\n        \"sizes\": {\n            \"length\": 19.3,\n            \"beam\": 11,\n            \"height\": 4\n        },\n        \"mass\": 0,\n        \"cargo_capacity\": 2,\n        \"crew\": {\n            \"min\": 1,\n            \"max\": 1\n        },\n        \"speed\": {\n            \"scm\": 210,\n            \"afterburner\": 0\n        },\n        \"agility\": {\n            \"pitch\": 0,\n            \"yaw\": 0,\n            \"roll\": 0,\n            \"acceleration\": {\n                \"x_axis\": 0,\n                \"y_axis\": 0,\n                \"z_axis\": 0\n            }\n        },\n        \"foci\": [\n            \"Einsteiger\",\n            \"Reisen\"\n        ],\n        \"production_status\": \"Flugbereit\",\n        \"production_note\": \"Keine\",\n        \"type\": \"Mehrzweck\",\n        \"description\": \"...\",\n        \"size\": \"Klein\",\n        \"manufacturer\": {\n            \"code\": \"ORIG\",\n            \"name\": \"Origin Jumpworks GmbH\"\n        },\n        \"updated_at\": \"2020-10-15T13:19:19.000000Z\",\n        \"missing_translations\": [],\n        \"components\": {\n            \"data\": [\n                {\n                    \"type\": \"radar\",\n                    \"name\": \"Radar\",\n                    \"mounts\": 1,\n                    \"component_size\": \"S\",\n                    \"category\": \"\",\n                    \"size\": \"S\",\n                    \"details\": \"\",\n                    \"quantity\": 1,\n                    \"manufacturer\": \"TBD\",\n                    \"component_class\": \"RSIAvionic\"\n                },\n                {\n                    \"type\": \"...\"\n                }\n            ]\n        }\n    },\n    \"meta\": {\n        \"processed_at\": \"2020-12-08 20:29:47\",\n        \"valid_relations\": [\n            \"components\"\n        ]\n    }\n}\n"
      }
    },
    {
      "request": {
        "title": "",
        "description": "",
        "method": "GET",
        "contentType": "application/json",
        "headers": [
          {
            "name": "Content-Type",
            "example": "application/json",
            "required": false,
            "schema": {
              "type": "string"
            }
          },
          {
            "name": "Accept",
            "example": "application/x.StarCitizenWikiApi.v1+json",
            "required": false,
            "schema": {
              "type": "string"
            }
          }
        ],
        "body": "{\n    \"NAME\": \"invalid\"\n}\n"
      },
      "response": {
        "title": "",
        "description": "",
        "statusCode": "404",
        "contentType": "application/json",
        "headers": [
          {
            "name": "Content-Type",
            "example": "application/json",
            "required": false,
            "schema": {
              "type": "string"
            }
          }
        ],
        "body": "{\n    \"message\": \"No Results for Query 'invalid'\",\n    \"status_code\": 404\n}\n"
      }
    }
  ]
}